<svg xmlns="http://www.w3.org/2000/svg" xmlns:xlink="http://www.w3.org/1999/xlink" width="114.597" height="120" viewBox="0 0 114.597 120">
  <defs>
    <rect id="rect-1" width="114.597" height="120" x="0" y="0"/>
    <mask id="mask-2" maskContentUnits="userSpaceOnUse" maskUnits="userSpaceOnUse">
      <rect width="114.597" height="120" x="0" y="0" fill="black"/>
      <use fill="white" xlink:href="#rect-1"/>
    </mask>
  </defs>
  <g>
    <use fill="none" xlink:href="#rect-1"/>
    <g mask="url(#mask-2)">
      <path fill="rgb(0,113,190)" fill-rule="evenodd" d="M111.41810608 85.5895996c.8993988-.05007934 1.71806335.51669312 1.98779297 1.37615968 1.95593262 6.30102539 1.49082947 11.53170776-1.37615967 15.57739258-3.97557068 5.5619812-11.42979431 7.14199829-14.99760437 7.581604-.9078064 1.57348633-1.99847412 3.03411865-3.24928284 4.35150146-1.08511352 1.14685059-2.28251648 2.18203736-3.57420349 3.08996582-.64346313.4650879-1.31243896.8855896-2.0005188 1.27423096-.35041809.1911316-.70083618.37591553-1.05761718.55429077l-.55427552.2548523-.5988922.24847412c-.13546754.04589844-.27746583.06954956-.42048646.07006836h-18.9859314l-6.32652282.05734253h-.03822327c-.66191864.00653076-1.22612-.4786377-1.31882477-1.13406372-.07645416-.55429077-.17201996-1.10220337-.22936249-1.6628418l-.06370544-.87921143v-.86010742l.05734253-.86010742.13378906-.8855896c.04582215-.30044556.11614227-.59661865.21025086-.8855896.0726471-.30084228.17069244-.59494018.29306793-.87921142.17623138-.4215088.38943481-.82659913.63710785-1.21051026l-.31855774-.24847412c-.40774536 1.22961426-.84098816 2.45288086-1.31881714 3.65063477-.67533875 1.71383667-1.40802002 3.3703308-2.24263 5.0586853-.23780823.44674683-.71128846.71694946-1.21688843.694458l-8.09768677-.08920287h-6.02708435c-.1435318.05889892-.29719544.08920288-.4523468.08920288H24.0955658c-.49328614.0046997-.94496918-.27572632-1.15953827-.71994019-.554039-1.08544922-.84640503-2.28546142-.85372925-3.50411987 0-3.05175781 1.7456894-5.79769898 4.7146225-7.51153565.05734253-9.38467407-.77727509-22.44546508-.98751831-25.52908325-.42025757-.85742187-.7966385-1.73562622-1.12768555-2.6312561-3.42129517-9.25088501-1.4717331-18.58456421.70719147-24.69445801-.75640107-.82174683-1.40901947-1.73324585-1.94319153-2.71411133-1.08361817-2.01629638-1.68753815-4.2554016-1.76480103-6.54312134-.93100738.97808838-1.98210144 1.8343811-3.1282196 2.5484314-1.2245102.77279663-2.57404328 1.32684326-3.9883194 1.63739014-1.43815613.30984497-2.92323303.33364868-4.37058258.07006836l-1.05760956-.21661377c-.35041046-.10192871-.68170929-.20385742-1.03211975-.33129883-.35041046-.12741089-.65622711-.2739563-.98752594-.40774536-.15927887-.0637207-.3312912-.15289307-.49694061-.24209595-.16564942-.08920288-.33129883-.17202759-.4905777-.2739563-.64524841-.37875366-1.24212646-.83444214-1.77754211-1.35705566-.53323365-.50454712-1.01160431-1.0640564-1.42713166-1.66921997-.81174469-1.17172241-1.43914795-2.46090699-1.86036682-3.82269287C.64969635 40.7055664.359581 39.3638153.19750977 38.00372314c-.29573822-2.65730285-.25935364-5.34109497.10830688-7.98937988.34731293-2.6204834.93595886-5.20326233 1.75843048-7.71542358.8164978-2.51019287 1.8770523-4.93431092 3.16644287-7.2375946 1.28540802-2.3471222 2.87963867-4.51133729 4.7401123-6.43482972.94553376-.97227478 1.98242951-1.85128784 3.09636689-2.62490845.56095886-.39372253 1.14378357-.75534057 1.74568176-1.0830841.29307556-.15290833.61162567-.32492066.93018341-.45872498l.47146607-.20387268.45871734-.1783905 1.84762574-.71356201.45871734-.1783905.45235443-.14654542.9556656-.28031921.97478484-.26121521c.33766175-.10194397.64984894-.15290833.97477722-.22937012l.97477723-.20387268c.32534027-.08058166.65505981-.14227295.98752594-.18475342l1.98778534-.2548523 2.01964569-.0828247c.67533874.0127411 1.35067749 0 2.02601623.08920288.67533875.08918762 1.3506775.15290833 2.0196457.28031922.66999816.11621093 1.33348083.26719665 1.98779296.4523468.34403992.10194397.65621948.18476868.98114777.30581665l.95566559.3695221c.63734436.2719574 1.25849914.58041381 1.86036682.92381286.30581665.16564941.5988922.36315918.89833069.55429077l.14653015.10830689C43.61030579.21025085 50.19166565 0 51.5359726 0c1.34430694 0 7.75365448.20387268 12.14334869 4.44067383.2612152-.16564942.51605225-.33129883.77728271-.47784424.6031952-.3408966 1.22421265-.64927673 1.86035157-.92381287l.96205139-.3695221c.34403991-.12104796.65623474-.20387267.9811554-.30581664.6538391-.19374085 1.31732177-.3532257 1.98779296-.47782898.66896057-.12742615 1.33792114-.24847412 2.01327515-.28033447.67532349-.0318451 1.3888855-.08918763 2.02600098-.08918763l2.01965332.08282471 1.99415588.25483704c.3304596.0419159.65809631.10360718.9811554.18476867l.98114013.20387268c.33129883.0764618.65623474.12742615.9684143.22937012l.95567323.28669739.9811554.28031921.47146606.14654541.45870971.1783905 1.82852173.70718384.45870972.17840577.47146606.21661377c.31854248.13378906.61799622.30581665.92381287.45872497.60395813.32771301 1.18891907.6893158 1.75205994 1.0830841 1.11392211.77362061 2.15081787 1.65263367 3.09635925 2.6248932 1.85768127 1.92115783 3.45169067 4.08076477 4.7401123 6.42208862 1.29388428 2.3058319 2.36073304 4.73187256 3.18556214 7.24397278.83718872 2.50389099 1.43869018 5.08052063 1.79664611 7.69630432.36253357 2.64878845.3967743 5.3321991.10194397 7.98937988-.15681457 1.36042786-.44485473 2.70246887-.86010742 4.00743103-.42388916 1.36071778-1.05110168 2.64950562-1.86035156 3.82266236-.41552734.60519409-.89390564 1.16470336-1.42713928 1.66925048-.53666687.52114869-1.13336182.9767151-1.77754212 1.35705567-.15927124.1019287-.33129882.19110107-.49694824.27392578-.16564941.0828247-.33129883.17840576-.49694824.24212646-.35040283.13378907-.64985657.2930603-.98751831.40774537-.337677.11468505-.68171692.22937011-1.02575684.33129882l-1.05760193.24209595c-1.44735717.26358032-2.93241882.23977661-4.3705902-.07006836-1.41590882-.31170654-2.76733399-.86566162-3.99468995-1.63739014-.98423767-.6047058-1.89871216-1.31622314-2.72683716-2.12158203-.22174072 4.1616211-2.24830627 8.01931763-5.5492401 10.56332398 1.3054657 2.78430176 3.50276183 5.0533142 6.24369811 6.4475708 8.32704163 4.24316406 15.30342102 14.1375122 17.35491944 24.6307373.66793823 2.99423218.98651123 6.05581665.94929504 9.1234436v.9492798c6.47305298-1.9814148 8.56915283-7.48605347 9.2381134-11.04751588.15280152-.88973999.90730286-1.55126953 1.80940247-1.58639526zM9.10433197 47.02520753l.79638672.2548523.79001617.1656494c2.19184876.36294557 4.43992615-.11489867 6.2946701-1.33795165 1.96298982-1.29208374 3.63401795-2.98046875 4.9057541-4.95672608l.22936249-.36312866c1.2271881-1.93551636 2.22968292-4.00462341 2.98806-6.16725158.45626067-1.2805481.83705901-2.58674622 1.14042663-3.91186524.40138244-1.6118927.63711548-3.25564575.63711548-3.25564575l.25483703-1.87310791c.08282471-.63711548.1720276-1.27423096.28670502-1.91133118.02548218-.15290832.08919525-.29945373.08919525-.45236206.0955658-.49057007.19750214-.98114014.29943848-1.46534729.06371307-.2612152.13379669-.52243042.2038803-.7900238.10193635-.3695221.19750214-.74542237.30580903-1.11494446l.24847412-.73268127c.32559967-1.0394745.76579285-2.03952027 1.31245422-2.9816742.17201996-.29307556.39500428-.56703186.5861435-.84736633l.356781-.38864136.1783905-.1911316.21024323-.1656494.21025086-.16564942c.07777404-.04969788.15864563-.09437561.24210357-.13378906l.23573304-.12104798.26758575-.07646179c.33944702-.08706665.69998932-.02192688.98751831.1783905-.29177856-.05621337-.59381866.01065064-.83460999.18476868l-.17202758.12104798-.14653015.1592865c-.05179596.04840087-.09873963.1017456-.14016724.15927123l-.12104797.18476868c-.15798188.2457428-.29644776.50349426-.41412354.77090454-.0955658.2930603-.19750977.56703186-.29307556.85372925-.32205963 1.1852417-.56890106 2.3896637-.7390442 3.60604858-.0700836.6243744-.1656494 1.22962952-.23573302 1.85398865-.07008362.6243744-.12742615 1.22962952-.20387268 1.866745-.10831452 1.2742157-.2293625 2.48472595-.37590027 3.82266235-.3234253 2.62446594-.90385437 5.21081543-1.73294068 7.72180176-.2612152.77090454-.54154968 1.53544617-.85372924 2.28723144-.21025086.47782898-.41412354.95567322-.63711548 1.42076111-.52935028 1.11151123-1.12506104 2.19015503-1.78391266 3.23016358-.45871735 2.9498291-.30580902 6.11627197 1.22962189 8.91955566.22433471.4076538.4732666.80126953.74542236 1.1786499.29260254.39962769.60740662.7824707.94293213 1.14682007.31858826.34817505.65680694.67788696 1.01300049.98751831 3.29386902 2.84152222 9.11070251 4.26864624 9.11070251 4.26864624-.12742615-.80914306-.22936249-1.63739013-.28669739-2.47836304-.2421112-.15930175-.48420715-.32492065-.71994018-.49694824-1.77531433-1.26434326-3.37002564-2.76473999-4.7401123-4.45977783-.28032685-.356781-.5479126-.71356201-.79638673-1.0767212-.45872497-.66897582-.84098815-1.35705565-.84098815-1.35705565-.22299195-.43322754-.43960572-.87283326-.63711548-1.31243897-.68577576-1.5340271-1.04589844-3.19363403-1.05760193-4.87390137.00320434-2.29977417.7545929-4.53604126 2.14069366-6.37112426.38596344-.53082276.81194306-1.03135682 1.27422333-1.4972229 1.42233276-1.39230347 3.05400085-2.55317688 4.8356781-3.44039917 2.37423706-1.20529175 4.89182282-2.10443116 7.49243164-2.6758728 2.47390747-.5573578 5.00114441-.84361268 7.53703308-.85372926 2.12394715.01730347 4.24176789.23059082 6.32652283.63711548 3.02963257.54307556 5.96647644 1.51487732 8.72206116 2.8861084 2.06625366 1.01348877 3.92126465 2.410141 5.4664154 4.11575318 1.78961182 1.97650146 2.78373718 4.54577636 2.7905426 7.21209716-.08595275 2.83706665-1.0597229 5.57565308-2.78417968 7.83010865-.18475342.2930603-.40774536.57977295-.63710022.86010742-.0955658.12741089-.20387268.24847412-.30581665.375885-.22935486.2739563-.4714508.54153443-.7263031.81549073l-.13378907.14016724-.14016723.1465454-.11468506.12106324c-.35040283.30581665-.64349365.63711548-.98751831.94290161-.71536255.63269043-1.46626282 1.22406006-2.24900818 1.7711792l-.63711548.43322754-.33129883.22299194c-.06370544.77090454-.15290832 1.52908325-.2739563 2.26812744 2.11569214-.49935913 4.15995789-1.2635498 6.08442688-2.27450561l.63710022-.36950684c.08282471-.05096435.1783905-.1019287.26121521-.15927124l.21025086-.13378906c.0513153-.03030396.10029602-.06436157.14653015-.10195923l.15292358-.09555054c.23571778-.14016723.43960572-.28671264.63710022-.43325805l.46510315-.36312866.20385742-.16564942c.15292359-.1274414.29943848-.2548523.43960572-.38864136.96243286-.87393188 1.77397156-1.90075683 2.4019165-3.03903198 1.27311707-2.47979736 1.74505615-5.29364014 1.3506775-8.05310058l-.38864137-.5670166c-.73039245-1.12805176-1.38589477-2.30288697-1.96229553-3.51686097-.20387268-.40774536-.38864136-.83460998-.56703186-1.2742157-.33129883-.7900238-.6307373-1.5991516-.9046936-2.41465759-.83209229-2.5101471-1.41259766-5.09680176-1.73294068-7.72180176-.1465454-1.3570404-.26759338-2.54844665-.37591552-3.82266235-.08282471-.59251404-.1274109-1.24874878-.20385742-1.866745-.0764618-.61799621-.1720276-1.21687316-.24211121-1.85398864-.16706848-1.21691895-.41395569-2.42152405-.73905945-3.60604859-.08918762-.28671264-.1911316-.56066894-.2930603-.8537445-.118042-.26602173-.25427246-.52360535-.40774536-.77090454l-.12106324-.18475342c-.04328918-.05601502-.09010314-.10920716-.14016723-.1592865l-.14653015-.15927124-.17201233-.12104798c-.2489624-.17758178-.56019593-.2444458-.86010742-.18476867.29112243-.20327759.65682983-.26850891 1.00027465-.1783905l.26119996.07646179.14016723.07008361c.1374054.04907227.26800537.115448.38864136.19749451.2455597.17637634.4607544.39155579.63711548.63711548l.24847412.2739563c.19750976.28033447.41412353.55429077.59251404.84736633.66661071 1.1618042 1.19476318 2.3977356 1.57365417 3.68249512.17840576.63711548.38227844 1.27423096.5097046 1.91134643.12741088.63710022.26757812 1.2742157.38864135 1.91133118.07644653.45872498.14653015.92381287.2102356 1.38252258l.07644653.54792786.2548523 1.87310791c.03186034.07008362.03186034.14653015.03186034.21661377.07006836.4523468.14653016.9046936.22935486 1.3570404.08282471.45236207.1783905.90470887.28033448 1.35705567.356781 1.63101196.85372924 3.18556213.85372924 3.18556213.17201233.53517151.36314392 1.07034302.36314392 1.07034302.03186036.0955658.07009888.19750977.10830689.29307556.29945373.77728272.5925293 1.54180908.93655395 2.29359436.1720276.38864136.36315918.7709198.55429078 1.15318299.48321533.96166992 1.02359008 1.89352417 1.61827087 2.79052734.12742615.19116211.2612152.37591553.39500427.56066895 1.2024231 1.74557495 2.73480225 3.23901367 4.51075745 4.39608764 1.43556213.9320984 3.1051178 1.44003296 4.8165741 1.46536255.45910644.00320435.91758728-.03518677 1.36978149-.11468506h.10830688l.8027649-.18478393.79638672-.25482178c.26757812-.09558106.52243042-.21664429.78364563-.318573.1252594-.05047607.24664306-.11010742.36314392-.17837524.12002563-.05361939.23513794-.11755371.34405517-.1911316.46200562-.26559448.88989258-.58651733 1.2742157-.95568847.39555359-.37078858.75013733-.78305054 1.05760193-1.22961426 1.25930786-1.9597168 2.04058838-4.18789673 2.28086853-6.50491333.30255127-2.42224121.30255127-4.87269592 0-7.29493713-.29605103-2.45187378-.82077026-4.87068177-1.56730652-7.22483826-.74441528-2.3542633-1.71968079-4.62919617-2.91159058-6.79161072-1.16255188-2.14883423-2.60667419-4.1328888-4.29412841-5.8996582-.83233643-.86209106-1.74308777-1.64486694-2.72047425-2.3381958-.48225403-.33830261-.98200988-.65092468-1.49720764-.93655396-.26757812-.13380432-.52243042-.28033447-.7900238-.40138244l-.39500427-.18476868-.43322754-.16564941-1.72659302-.63711548-.43322754-.16563416-.43960571-.13380432-.8855896-.2612152-.87921143-.26121522-.12104797-.03822327c-.25483704-.07008361-.5160675-.10830688-.77090454-.1656494l-.8983307-.1911316c-.29562377-.07421875-.5956726-.12954712-.89833068-.16564941l-1.8030243-.22937012-1.81576537-.07006836c-.14976502.00318909-.29992676.00398254-.45019532.004776-.4506073.00238037-.90211486.004776-1.34646606.07167053-.59249878.08920288-1.20413208.12104798-1.77752686.2548523-.57341003.13378906-1.16592407.22935485-1.72659301.42048645-.28031922.08920288-.57339478.15927124-.84735108.26759338l-.84098816.24847412c-.53536987.2321167-1.05848694.4915619-1.56729126.77726746l-.08918762.05734253-.21025085.12742614-.21025086.13378907-.22299194.14016723-.337677.24209595-.15289307.12104797-.05734253.05097962-.08920288.08918762-.08918762.0637207c-.11494446.08610535-.24441528.1508484-.38227844.1911316-.48739624.16307067-1.02505494.01734924-1.36340332-.3695221-.0297699-.03884888-.05741883-.07925415-.08282471-.12106323-3.01991272-3.38943482-7.7409134-4.11573792-9.91983795-4.26864624-.33129883-.03822327-.59888459-.03822327-.79639435-.03822327h-.4523468c-.29943848.00637818-.76452637.02548218-1.3506775.0828247-2.37641906.23573304-6.67692565 1.14042664-9.46110534 4.32598878-.24499512.2864685-.60423279.4497528-.9811554.44598388h-.21024322c-.35057068.06166077-.71096039-.02612304-.99389648-.2421112h-.05097199l-.0573349-.05096436-.04459381-.03822326-.0764618-.0637207-.15927123-.12104798-.337677-.24209595-.0955658-.0637207-.19750214-.12741089-.19750213-.12106323-.23573304-.14653015c-.50933837-.30215454-1.03466033-.57652283-1.57366943-.8218689l-.8218689-.31855774c-.2739563-.10830688-.56703186-.1783905-.8473587-.26759338-.57017517-.16934204-1.1485672-.30967713-1.7329483-.42048645-.50331116-.0955658-1.01937866-.15290833-1.53543854-.22299195h-.2357254c-.60526276-.01911926-1.20414734-.07646179-1.80303192-.07646179l-1.80939484.07008362-1.8030243.22937012c-.30265807.0361023-.6027069.09143066-.89833068.16564941l-.89833069.1911316c-.29943848.07008361-.59888458.10830688-.89195251.20387267l-.8855896.26121521-.29943848.08920288-.57977295.17201233-.43960571.13378907-.43323517.16564941-1.72657776.67533875-.43323517.1656494-.40137481.18476869c-.26758576.12104797-.52243805.26757812-.78365326.40138244-.51812745.28413391-1.0200882.59680176-1.50357819.93655396-.97533417.69343567-1.8839569 1.4762268-2.71409607 2.3381958-1.68746185 1.7667694-3.13158417 3.75082397-4.29413605 5.8996582-1.19190979 2.16241455-2.16718292 4.43734741-2.9115982 6.79161072-.74861908 2.35395813-1.27546692 4.77278137-1.57366944 7.22483826-.25964355 2.0882721-.30021667 4.19796753-.12104797 6.29467773.02548218.36314392.06370544.66896057.10830689 1.0002594.23052978 2.31726074 1.00788116 4.54667664 2.2681198 6.50489807l.03822327.05734253c.29843903.42489624.6400528.81774902 1.01937867 1.17230225.3840332.36950683.81197357.6904602 1.27422332.95565796.1097107.07226562.22471619.13616943.34403992.19113159.11871338.06829834.24221039.12792968.36952972.17840576.26121521.10192871.51605988.22299194.77727509.31854248zM68.1645813 51.771698l.36953735-.36953736c.2739563-.28033447.53517151-.56063842.79000855-.82824707 2.0323944-2.36367797 3.3066101-4.99493408 3.3066101-7.6453247 0-8.46084595-12.46827697-12.40457154-20.96097564-12.37271118-5.93151093 0-13.85717774 1.95593261-18.03662873 6.06529235-1.78523254 1.62825013-2.81624603 3.92323304-2.84789276 6.33927918.03403473 1.68673706.48960114 3.33816528 1.32519532 4.80380249l.13378906.21661377c.1783905.30581665.37590027.63076782.57977295.94293213.0955658.14016723.19113159.28033447.29306793.41412353.33766937.47146607.77091217 1.0130005 1.10220337 1.38253784.33129883.36953736.67533874.73266602 1.03849792 1.08947754.60735321.58358765 1.24536896 1.13439942 1.91133118 1.65011597.356781.28668213.72631073.56063843 1.10857391.82824707l.16564942.11465454.17201996.12106323c.37590027.2548523.7517929.49694825 1.14043426.73266602.99069977.60739136 2.0184555 1.15213013 3.07724762 1.63101196 1.29505158.58660889 2.63518524 1.06811524 4.00743103 1.43988037.95687866.2518921 1.9296112.43920899 2.91160584.56066895l.68807983.07006836h.03822327c.40775299.05096435.77728271.05096435 1.21051025.05096435.4332428 0 .83461762-.019104 1.27423096-.05096435.43960571-.03186035.85372925-.0828247 1.2742157-.14654541h.15290832c.96848297-.14993286 1.92617035-.36276245 2.8670044-.63708496 1.14369201-.35113526 2.2631607-.77679444 3.35121154-1.27423096l.16564942-.07647705.1019287-.04458618.08282472-.03820801.19114685-.08920288c.78364563-.40774536 1.56091308-.8218689 2.31271362-1.27423096l.58613586-.356781.55429078-.35678101.17201232-.12106323.1720276-.11468506.694458-.49691773.41412354-.31219482c.26119995-.22299194.5670166-.46508789.77090454-.63711548.20387268-.17202759.40136718-.337677.59249878-.50970459l.1592865-.14651489.15927123-.14654541.42686463-.40774536zm2.40829468 65.54608154h.57339477l1.76480103-.09558105h12.46191406l.24209595-.10830689.46508789-.2102356c.28033447-.15292358.61799621-.31219482.91744995-.4842224.61161804-.34402466 1.20413208-.71990967 1.78390503-1.12130738l.34403992-.2548523.31855773-.24209594.32492066-.24847412c.77522278-.61621094 1.5074768-1.28460694 2.1916809-2.0005188.81158448-.85839844 1.5470276-1.78570557 2.19802857-2.77145386.0828247-.12103271.15927124-.24209595.23571777-.36312866.2357483-.36315918.45874024-.73269653.66897583-1.11495972.3899231-.7109375.74084473-1.44256592 1.05123902-2.1916809.0828247-.2293396.16564941-.42684937.24847412-.63708497v-.05096435c.18475342-.5097046.34403992-1.02575684.49694824-1.54818726l.17201233-.63711548c.16564942-.63711548.30581665-1.27423095.42686462-1.91134643v-.03823853l.14654542-1.00024414.04458618-.31219482.03186035-.21661377.04460144-.53518677.04460144-.57339477.04458618-.49057007v-1.07034302c.01911926-.87286377-.00636291-1.7520752-.05734253-2.62490845-.10830688-1.7711792-.38864136-3.52960205-.38864136-3.52960205-.02548217-.14016724-.07006836-.28033447-.07006836-.4205017-.10830688-.65621949-.23573303-1.3251648-.38226318-2.0005188-1.21412659-5.85974122-3.85305786-11.33016968-7.68357849-15.92779542-2.27554321-2.82009887-5.09144592-5.1572876-8.28245544-6.87442016l-.45870972-.24212647-.15290833-.08917236-.30581665-.17202759-.16564941-.10192871-.26759338-.16564941-.18475342-.12744141c-.08920288-.05096436-.17202759-.10830689-.2548523-.16564941l-.17201233-.12103272-.2421112-.17202759-.18475342-.14016723h-.04460144l-.1783905-.13378907-.18475342-.1465454-.21662903-.17837525-.1783905-.15292358c-.07644654-.05734253-.14653015-.12103272-.21661377-.18475342l-.1720276-.15927124-.21023559-.1911316-.16564941-.15930175-.20388794-.19747925-.15927124-.16564941-.19750977-.21026612-.15927124-.16564941-.19750976-.22299194c-.04458618-.05096436-.08920288-.10830689-.14016724-.15927124l-.20387268-.2548523c-.04460144-.04458618-.0828247-.09555054-.12104797-.14016724l-.31219483-.40136718-.06370544-.08920288-.23573303-.32492066c-.03822327-.05096435-.07006836-.10830688-.10830689-.16564941l-.07644653-.10830689-.10194397-.1465454-.1146698-.18475343c-.05097961-.0828247-.10832214-.16564941-.15292358-.24847412-.04403687-.06350708-.0844574-.12942505-.12104798-.19750976l-.14015198-.23571778-.11468505-.20388794-.13378907-.24847412c-.03823852-.0637207-.0828247-.15289306-.10830688-.20385742-.02549744-.05099487-.07009888-.09558105-.07009888-.14016723-.356781.23571777-.73266601.4396057-1.1149292.63708496-1.23303222.61953735-2.510849 1.14556884-3.82267761 1.57366943-1.19763184.3876648-2.41390991.7151184-3.6442871.98117065-.15290833.57339478-.33128358 1.13406372-.52243043 1.68197632-.22935486.63711548-.49694824 1.27420044-.49694824 1.27420044-.02397156.05197144-.04524231.10513306-.06370545.15930176-.02548217.05734253-.07008361.10830688-.07008361.15927124-.52928162 1.20550537-1.16912842 2.35934448-1.91133118 3.44677734.08918762.42050171.17201233.8409729.23573303 1.27423096.7263031 4.58081055.39500427 8.41622925-.93655395 11.26412964-.37631226.81365967-.85829163 1.5741272-1.4335022 2.26174927-1.84126282 2.1470642-4.52986908 3.28112793-7.77913666 3.28112793-1.80151367.03207397-3.5830307-.38156128-5.18608856-1.2041626-.98394013-.5253601-1.86118317-1.22973633-2.58667755-2.07696533-.20944977-.24597168-.40512848-.50332642-.5861435-.77090454-2.02601623-2.92434693-2.650383-7.30767823-1.7902832-12.74224854v-.16564941c-.67828369-.82662964-1.2856903-1.70898438-1.81576538-2.63763428-.90592194-1.6293335-1.61185455-3.36206055-2.1024704-5.16061401-6.6514511-1.4143982-10.64614105-4.45977784-10.64614105-4.45977784-1.87310791 5.72763062-3.33209228 13.93362427-.38863373 21.8720398.21024323.56704712.43960572 1.12133789.68807984 1.67559814.17201995.37591553.356781.75180054.5479126 1.12768555.13379669.2548523.26758575.50970459.40775298.75817871.407753.694458.82187653 1.39526367 1.27422333 2.03237915 3.93735504 5.77859497 11.1876831 9.95169068 11.1876831 9.95169068v-3.2237854l.0382309-1.42074585c.01911164-.47146607.03822327-.96841431.0573349-1.4143982.01911164-.44598388.07008362-.89831543.07008362-1.34429931v-.48422242c.02548218-.39498901.08919525-.79000854.08919525-1.18502807.0078125-.07894898.063591-.14486695.14016724-.16564942.04818726-.01351928.09980011-.00692749.14302826.01831055.04323578.02520752.0743866.06689453.0863266.11547852l.05734253.22937011c.16564941.63711548.31855774 1.27423096.4523468 1.91134644.10194397.49057007.19113922.97476196.19113922.97476196l.11467743.60525513c.0955658.52246094.1783905 1.03851318.2612152 1.5609436.03186036.16564942.08282472.33129883.08282472.49694824.22299194 1.54818726.41412353 3.10272217.56066131 4.6572876.03185272.36950684.08919525.67532349.08919525 1.00662232v.50970459c.05734253.74542236.0955658 1.49084472.0955658 1.49084472.07008362 1.3506775.10193634 2.70770264.10193634 4.0647583v5.89328003c.0020523.44555664-.24337769.85543823-.63710785 1.06399536-.34809875.17297364-.68437958.36877442-1.00663757.5861206-.3888855.25253297-.75358582.54046632-1.08946228.86010743-.60354615.568573-1.0923462 1.24771118-1.43987274 2.00054932-.31642151.68319702-.48365784 1.42599487-.4905777 2.17889404.26734924.17001343.5462265.321167.83461761.45236206.3979416.17608643.80649567.32714844 1.22325135.45236206l.06371307-.15292358c.02851105-.3100586.07317352-.6184082.1337967-.92379761.09856414-.50906372.26126098-1.00360107.48419952-1.47174072.18839263-.42578125.47170257-.80279541.82824707-1.10220337l.0955658-.07644653c-.24946595.39929199-.39410401.85510253-.42049409 1.3251953-.03731537.45343018-.01374054.90985108.07008362 1.35705567.05114746.31402588.12136078.6246643.21024322.93017578.0382309.1274109.0764618.26119995.1210556.38864136l.0382309.11465454c.72049714.13009644 1.4480896.21731568 2.17891694.26123047l.91744232.02548218v-.30581665c.05895233-.46929932.16133117-.9321289.30581665-1.38253784.13775634-.43875123.31253051-.86502076.52243042-1.27420044.2024231-.39260865.44360351-.76397705.71993255-1.10858155-.11513519.41607666-.18561554.84320069-.21024322 1.27423096-.0383606.4111023-.0383606.82489014 0 1.23599243.03489685.3951416.10960388.7857666.22299194 1.16589356.03185272.12106323.07644653.23574829.11467743.35043335.02400208.05410766.0452652.109375.06371307.16564941l6.30740357-.07009888c.61799621-1.35067749 1.17865753-2.66949463 1.76480102-4.147583.58613587-1.4781189 1.15316773-2.96258545 1.67559815-4.45977784.05734253-.18478393.1337967-.40777588.18476868-.54156494.05096435-.13378906.0955658-.2739563.14016723-.40774536l.13378906-.38864136c.15290833-.44598388.30581665-.89831543.4523468-1.35067749.03822327-.12741089.08282471-.2548523.12104798-.38226318.14016724-.4205017.2548523-.84735107.38864136-1.27423096l.3950119-1.27423095c.53593445-1.71444703 1.2048111-3.38452149 2.00052643-4.99493409v-.03823852c.03016662-.03329468.07048034-.05569458.11468506-.06369019.0349884-.0126648.07331848-.0126648.10830688 0 .06021118.0253296.10176087.08154297.10830689.1465149.14051818.92739868.1896057 1.866333.1465454 2.8033142-.02548217.45870972-.04460143.92379761-.10194396 1.38250733-.05734253.45874023-.12742615.91107178-.20387268 1.36981201-.16564942.91107178-.41412354 1.7902832-.63711548 2.68222046l-.42050171 1.52270508c.63711548.50967407 1.27423095 1.01300049 1.27423095 1.01300049.93969727-.67645264 2.00561524-1.15740967 3.13458252-1.4143982.29307557-.07006836.57977295-.12103271.8664856-.17199707-.43278503-1.0027771-.76361084-2.04650879-.98753357-3.11547851-.18673706-.8366089-.28074646-1.69125367-.28031921-2.54846192.02215576-.88812256.19894409-1.76559448.52243042-2.59301758.33029174-.82489013.80493164-1.58428955 1.40164184-2.24264526.57247925-.6303711 1.23605347-1.1715393 1.9686737-1.60552978.70492555-.41210938 1.45820619-.73526001 2.24263001-.96203614.75889588-.22924804 1.54559327-.35357666 2.3381958-.36953735l-.20385742.1083374c-1.11727905.57531738-2.15403747 1.29504395-3.08363342 2.14068604l-.34403992.32492065c-.96160888.93066406-1.64920044 2.10751343-1.98779297 3.40219116-.04458618.18475342-.0828247.36950684-.12104797.55426026-.08357239.440094-.14100647.88470459-.17201233 1.33157348-.0288086.6692505.01174927 1.33966065.12104797 2.0005188.22457886 1.1767273.5926056 2.32144165 1.09584046 3.40856934 1.08920288.0204773 2.175354.12268066 3.24926758.30581665 1.20527649.21401977 2.39503479.50772095 3.56144714.87921142.86639404.2739563 1.71714783.5951233 2.54844666.96203614.18832397.08084106.2926178.28408813.24847412.4841919-.04795838.2337036-.27580262.38464355-.50968933.337677-.66259766-.13378907-1.3506775-.2548523-1.98779297-.36950684-1.34776306-.22381592-2.70689392-.37271118-4.07113648-.44598389-1.16392517-.07055664-2.33166504-.04501343-3.49137878.07644653-.1139679.03155518-.2322998.04446411-.35040283.03823853-.64706421.08721924-1.28619385.225708-1.91134644.41412353-.54637146.16210938-1.0706482.39108277-1.56091309.68170166-.25680542.15270997-.49983215.32751465-.72631835.52243042-.12075806.10165406-.23562623.21014405-.34402466.32492066-.17303467.18600464-.33270264.38400268-.47784424.5925293-.0955658.14651489-.1911316.30578613-.2739563.46508789-.1015625.2069397-.19090271.41967773-.26757813.63708496-.08157348.19293213-.14346313.39355468-.18476867.59890747-.06617737.20761108-.1131134.42086792-.14016724.63711548l-.08918762.63708496v1.38253784l.04458618.70083618c.03823853.10192871.03823853.20385742.03823853.31219482h2.3572998v-.51608276c.01991272-.52017212.08169556-1.03790283.18476868-1.54818725.09436035-.51135254.25498962-1.00823975.47782898-1.47808838l.0828247-.16564942c.08787537-.16101074.1857605-.31634521.29307557-.46508789.08872985-.11413574.18449401-.22265625.28669738-.32492065.08091736-.07931519.16830445-.15176392.26121521-.21661377-.05921936.08981323-.1124115.18347168-.15927124.28030395-.14433288.32437134-.23060608.67156983-.2548523 1.02575684-.03730773.4534607-.01374816.90985107.07008363 1.35705566.0788269.44696045.18954467.88769532.33129883 1.31881714.0828247.2102356.15290832.42687988.23573303.63711548l.12104797.0637207h3.18556213v-.29309082c.02589417-.24261474.0684662-.4831543.12742615-.71990967.05096436-.20388793.10830689-.42687988.1783905-.63711547.07585145-.24682618.1651764-.48928833.26757813-.72631836.07008362-.16564942.14654541-.33129883.23573303-.49694825v-.03823852c.1979065-.39376831.43710327-.76538086.71356201-1.10855103-.06469726.2364502-.11366272.47695923-.14653015.71994019-.0306549.17712402-.05192566.35577393-.06370544.53515625-.01274109.22705078-.01274109.45465088 0 .68170166-.00950623.18466187-.00950623.36965942 0 .55429077.03996277.39492798.116745.78527832.22935486 1.16592407 0 .01062012-.00354004.01416016-.00708008.0177002-.00708008.00708008-.0141449.01416016.00708008.07785034.03186035.09558106.06370544.19750977.10194397.29309082zM54.61959076 61.43032837h.50968933l.38864136.1465454h-.43961334l-.45871735-.1465454zM44.20919036 74.5038452c-.0068283 1.48962403.22107697 2.9710083.67533875 4.38970948.23482514.68362427.55597687 1.33450317.9556656 1.9367981 1.04743957 1.6529541 2.78398132 2.74591064 4.7273712 2.97531127.53142548.08013916 1.06808472.12060547 1.60551453.12106323 2.50385285 0 4.45978547-.79638671 5.80409241-2.37643432.63487244-.83773804 1.09819794-1.7925415 1.36341858-2.80966187.70402527-2.51629638.84970093-5.15603637.42686462-7.73452758-.02548217-.2357483-.06371307-.47146607-.10193634-.70721436v-.23571777l-.07645416-.42684937c0-.0236206.00505829-.04577637.01006317-.06768799.00986481-.04321289.019516-.08551025-.01006317-.13619995-.04460144-.07644653-.04460144-.1465454-.04460144-.22299194-.08919525-.45870972-.19113159-.9046936-.30580902-1.34429932-.17201996-.73269653-.38864136-1.4526062-.63711548-2.08972168l-.0573349-.15292358c-.40499115-.97790527-.87980652-1.92538452-1.4207611-2.83514404l-.050972-.08920289-.21024322-.36315917c-.33592224-.22576905-.68962097-.4239502-1.05760955-.59249878h-.38863373c-.8600998.03823852-1.75205994.07644653-2.65676117.07644653-.02548218.37591553-.070076.75180054-.070076 1.12768555-.03186034.49057006-.08920287.98117065-.08920287 1.47174072-.01911163.24847412-.0573349.50332641-.0573349.75180054-.05734253.77090454-.12742615 1.54815673-.19750214 2.31906127-.03186035.36953736-.06371307.73907471-.10194397 1.11495972v.28033447c-.10830688 1.0767212-.2357254 2.1279602-.38226318 3.18554688-.07645416.56066894-.17201996 1.12768555-.17201996 1.12768555.00308228.05941772.00308228.11898803 0 .17840576-.0030899-.05731201-.0030899-.11471558 0-.17202759-.0955658-.56066895-.17201996-1.12768555-.17201996-1.12768555-.2166214-1.5991516-.38227081-3.18554687-.38227081-3.18554687v-.28033447c-.05096436-.1911316-.05096436-.37591553-.05096436-.56066895-.0828247-.86645508-.15927887-1.73294067-.22299194-2.60577393-.02548218-.337677-.0828247-.68173217-.0828247-1.01937866-.03185273-.49060058-.08919526-.98117065-.08919526-1.47174072-.02548218-.37588501-.07008362-.75180054-.07008362-1.12130737l-1.66923523-.03186035c-.65196228.26672363-1.26489257.6203308-1.82213592 1.051239l-.3121872.2548523c-.52962494 1.00088501-.98325348 2.04019165-1.35704803 3.10910035-.29267883.85583496-.5351944 1.72805786-.7263031 2.6121521-.08919525.41412353-.17201996.83462524-.24210358 1.27423095.00262451.01474.00262451.0298462 0 .04458618v.40774537c-.06371307.45236206-.1210556.89196777-.16564941 1.3251953-.08699799.87216187-.12528229 1.74847413-.11467743 2.62490845zm-19.2726364 42.81390381c-.17743683-.5232544-.2678299-1.07208252-.26758576-1.62463379 0-2.26174926 1.4908371-4.3387146 3.98194885-5.56835937.44251252-.2107544.72491455-.65664673.7263031-1.14678955.08282471-6.84259033-.35041046-15.88955689-.68170929-21.62994385.33766938.45236206.68807984.89196777 1.05760956 1.33157349 3.21098328 3.6882019 7.0831833 6.7435913 11.41703797 9.00875854.03186035 1.81576538.09557342 3.63153076.17839813 5.44729614 0 0 .11467743 2.54846192.1019287 5.09689332-.73185729.42016601-1.41184997.92480468-2.0260086 1.50360107-.82151031.77490234-1.48941803 1.69787598-1.96868133 2.72045898-.48500061 1.0543213-.7287674 2.20352173-.71356201 3.36395264.00830078.5017395.06807708 1.00128174.1783905 1.49084473h-4.7974472c-.0625763-.15164185-.11576844-.3069458-.15927887-.46511841-.11260987-.38064575-.18939972-.77096558-.2293625-1.16589356-.03836059-.4111023-.03836059-.82489013 0-1.23599243.0268097-.4312439.09941865-.85836792.2166214-1.27423095-.28713989.35079956-.53298187.73345947-.73268127 1.14044189-.21555328.40655518-.39054107.8333435-.52243042 1.27420044-.14448547.45040894-.24686432.91323852-.30581665 1.38253784-.0193634.12454224-.03211975.25-.03822327.37588501h-2.21714782c-.05734253-.15927124-.1210556-.31854248-.17839813-.4841919-.14472962-.43026733-.2555008-.87124633-.3312912-1.31881713 0-.17840576-.05097199-.36315918-.07008362-.5479126-.01905823-.26937866-.01905823-.5397644 0-.80914307.02639007-.47009277.1710205-.92590332.42049408-1.3251953-.40568543.3080139-.72409058.71646117-.92381287 1.18502807-.22368622.46728515-.3843689.96218872-.4778366 1.47174072-.1061783.5097351-.16799927 1.02774048-.18476105 1.54818726v.28668212l-1.45261383-.03186035zm85.95274353-25.43984985c.2612152-.63711548.47782897-1.21051025.63711547-1.7711792.93655396 4.42156982.39500428 8.07858276-1.62463379 10.90734863-1.0171814 1.38974-2.3043518 2.5598755-3.78445434 3.44039917-1.48542786.88485718-3.07566834 1.58044434-4.73373413 2.07061768-.97297669.29800415-1.96208191.54049683-2.9625702.72631836.10194398-.2548523.21025086-.5097046.30581666-.76452637.53089905-1.47833252.9400177-2.99761963 1.22325134-4.54263306l.13378906-.93017578c1.79042054-.41534423 3.49543763-1.13745117 5.03956604-2.13430786 2.5755005-1.71972656 4.58229065-4.16555786 5.76585389-7.02734375v.02548218z"/>
      <path fill="rgb(0,113,190)" fill-rule="evenodd" d="M51.33209229 32.8685913l-.05242157-.0000305c-1.13319397-.00114442-7.91773224-.00791932-10.17958832 3.3002777-.63711548.9174347-1.17228699 2.47836304-.22299195 4.7337494l.0382309.07644652c.17201996.4013672.36315155.79638672.57339478 1.1786499 0 .05734254.05734252.11468506.08919525.1720276l.09557342.17837524c.21024323.36953735.43323517.72631836.67533875 1.07672119.88462066 1.28790283 1.95857239 2.43487549 3.1855545 3.40219116 3.39195252 2.68429566 8.18437195 2.68429566 11.57632446 0 1.38902283-1.08398437 2.57902527-2.40118408 3.51686097-3.89276123.22297668-.356781.4396057-.72631836.63710022-1.10220337 0-.05734253.07008361-.12106323.0955658-.17837524.02548217-.05734253.05734252-.11468506.0828247-.17202759.12106323-.24847412.23573303-.49057007.34403992-.73904419l.1783905-.47784424c.5796051-1.39826965.42680359-2.99311828-.40774536-4.25590515-2.30634308-3.36395264-9.26360321-3.3193512-10.22564697-3.3002472zm-.31217957 2.5930481l.24210358.16564942.20387268.16564941c.34281921.2882843.56922912.69129944.63710785 1.13404846v.1592865c0 1.3506775-1.91133118 2.44013977-4.33235932 2.44013977-.69411468.00445557-1.38519287-.09213256-2.05149841-.28669738-.39040375-.11706543-.76487732-.2818451-1.11494446-.49058533l-.15290832-.0955658-.13378907-.0955658c-.30755615-.21635436-.5570221-.5052185-.72631073-.84098815-.06033325-.11851502-.1032486-.24511719-.12741851-.37590027-.00974274-.08465576-.00974274-.17016602 0-.25483704 0-1.34431457 1.91133117-2.44013977 4.3323593-2.44013977.3301468.00154114.65991212.0228119.98751832.06370545.78980255.0914154 1.55164337.34753418 2.23626709.75180053zm-3.70761871 5.76550293c-.16764069-.40472412-.56256867-.66860962-1.00064087-.66860962v-.01913452c-.29059601-.00003051-.56902314.11669922-.77269745.32397461-.20368195.2072754-.31552124.48770142-.31039429.77822876 0 .43807984.2638855.83300782.66860962 1.00067139.40472412.16763306.87058258.07495117 1.18034363-.23480225.30976105-.30975341.40242767-.77560424.23477936-1.18032837z"/>
      <path fill="rgb(0,113,190)" fill-rule="evenodd" d="M39.46269989 27.70799255c.53613281.33746338 1.15679169.51637268 1.79029083.51605225.3543396.00013733.70664978-.05355835 1.04486084-.15927124 1.4061966-.51193237 2.52314759-1.60566711 3.06450653-3.00079346 1.18502808-2.73321533.48420716-5.995224-1.56729126-7.27581787-.8459854-.53179931-1.88378906-.6623993-2.83515167-.356781-1.4061966.51193237-2.52314758 1.60566711-3.06450653 3.00079345-1.18502808 2.73320008-.48420715 5.995224 1.56729126 7.27581787zm2.69498444-6.08441162c-.1911316 1.01937866.10831451 1.9686737.74542236 2.12158203v.00636292c.60525513.15290832 1.2423706-.5479126 1.43987274-1.56729126.19750214-1.01937866-.1337967-1.9686737-.73905182-2.12158203-.60525512-.15290833-1.25510406.54154968-1.44624328 1.56092834zm-2.5293274 1.31243897c.29306794.0828247.43960572.56065368.31217957 1.0639801-.12741852.50331116-.43960571.84735107-.75816345.76452637-.31855011-.08282471-.44597626-.56703186-.31855011-1.07034302.12741852-.50332642.46508789-.84098816.764534-.75816345z"/>
      <path fill="rgb(0,113,190)" fill-rule="evenodd" d="M60.30900574 28.06477356c.3381958.10571289.69050598.15940857 1.04486084.15927124.63349914.00032043 1.25415039-.17858887 1.7902832-.51605225 2.05149841-1.27423095 2.75231934-4.5426178 1.56729126-7.27581787-.54135132-1.39512634-1.65830994-2.48886108-3.06451416-3.00079345-.95135498-.3056183-1.98915863-.17501831-2.83514404.356781-2.05149842 1.2742157-2.75231934 4.54260254-1.56729126 7.27581787.54135894 1.39512635 1.65830993 2.48886109 3.06451416 3.00079346zm-.63711548-4.31324768c-.60525513.15290832-1.27422333-.54792786-1.43987274-1.56092835-.16564942-1.01301574.14016723-1.9686737.73905182-2.12158203.59888458-.15290832 1.2742157.5479126 1.44624328 1.56092835.17201233 1.01300049-.10830688 1.94319153-.71356964 2.12158203h-.03185272zm3.72073364 1.01301575c.31855774-.08920288.44598389-.56703186.31855774-1.07035828h.03186035c-.12104797-.50331116-.47146606-.83460999-.7900238-.75178528-.31855774.0828247-.43960571.56065369-.31855774 1.0639801.12104797.50331116.43960571.84735108.75816345.75816346z"/>
    </g>
  </g>
</svg>
