<svg xmlns="http://www.w3.org/2000/svg" xmlns:xlink="http://www.w3.org/1999/xlink" width="17" height="16" viewBox="0 0 17 16">
  <defs>
    <rect id="rect-1" width="17" height="16" x="0" y="0"/>
    <mask id="mask-2" maskContentUnits="userSpaceOnUse" maskUnits="userSpaceOnUse">
      <rect width="17" height="16" x="0" y="0" fill="black"/>
      <use fill="white" xlink:href="#rect-1"/>
    </mask>
  </defs>
  <g>
    <use fill="none" xlink:href="#rect-1"/>
    <g mask="url(#mask-2)">
      <path fill="rgb(0,0,0)" fill-rule="evenodd" d="M6.50420168 7.94649874c-.0743034-.0453824-.16010615-.08035598-.22114109-.13822894 0 0-2.99071207-2.80829582-5.97346307-5.62075516-.41132242-.38679123-.40999557-.62910823.00442282-1.01923027 0 0 .4741265-.44882771.95134897-.89848812.38080495-.35806292.65855816-.35931198 1.03670942-.00333082 0 0 2.99469261 2.81787192 5.98805838 5.6378256.06313927.06862781.12220033.1404888.17691287.2152541.09730208-.0861849.16099071-.13989435.22114109-.19651825L14.67890314.28561763c.40291906-.37929688.66828837-.38054594 1.06634233-.00541258 0 0 .50243255.46922897 1.0022114.9422051.33701903.32017488.3374613.59663276 0 .91597492 0 0-3.00751879 2.83327696-6.02122954 5.66530485-.07272344.05838294-.14988647.11167948-.2308713.1594629.09995578.09992454.15701018.16071197.21760284.21775223l5.98717381 5.63740924c.40070766.37721513.39805396.62452835 0 1.00465794 0 0-.4789916.44966042-.95488721.89848813-.3923043.36888807-.66342327.37096984-1.0521893.00541257 0 0-2.99601946-2.81995368-5.98850066-5.63907465-.06147723-.05787296-.09907121-.13822894-.14772225-.20817612l-.11455108-.00832704c-.05130474.07619245-.08845644.16404278-.15612561.22649561 0 0-2.98319328 2.81412475-5.97080938 5.62408598-.39230429.36888808-.66342326.37013713-1.0521893.00374717 0 0-.50199027-.47047803-1.00176912-.9422051-.34719151-.32933462-.34719151-.59996358.00398054-.93054725 0 0 3.00132684-2.82661532 6.00442282-5.65073252.06555295-.05610318.13420194-.1089144.2056612-.15821385l.02874835-.09742642z"/>
    </g>
  </g>
</svg>
